<?xml version="1.0" encoding="UTF-8" standalone="no"?>
<!-- Created with Inkscape (http://www.inkscape.org/) -->

<svg
   xmlns:dc="http://purl.org/dc/elements/1.1/"
   xmlns:cc="http://creativecommons.org/ns#"
   xmlns:rdf="http://www.w3.org/1999/02/22-rdf-syntax-ns#"
   xmlns:svg="http://www.w3.org/2000/svg"
   xmlns="http://www.w3.org/2000/svg"
   xmlns:inkscape="http://www.inkscape.org/namespaces/inkscape"
   version="1.0"
   width="426"
   height="167"
   id="svg2">
  <metadata
     id="metadata27">
    <rdf:RDF>
      <cc:Work
         rdf:about="">
        <dc:format>image/svg+xml</dc:format>
        <dc:type
           rdf:resource="http://purl.org/dc/dcmitype/StillImage" />
      </cc:Work>
    </rdf:RDF>
  </metadata>
  <defs
     id="defs25" />
  <g
     transform="translate(-69,-761.82738)"
     id="layer1">
    <g
       transform="matrix(0.24,0,0,-0.24,69,928.36218)"
       id="g2190">
      <g
         transform="scale(4.16667,4.16667)"
         id="g2192" />
    </g>
    <g
       transform="matrix(0.24,0,0,-0.24,69.403,928.59538)"
       id="g2200">
      <path
         d="M 96.9727,693.895 C 43.4102,693.895 0,650.461 0,596.902 L 0,96.9844 C 0,43.4375 43.4102,0 96.9727,0 l 678.1133,0 0,693.895 -678.1133,0"
         inkscape:connector-curvature="0"
         id="path2202"
         style="fill:#0b305d;fill-rule:nonzero;stroke:none" />
      <path
         d="m 370.984,476.629 c 15.051,73.637 80.2,129.031 158.286,129.031 89.226,0 161.558,-72.336 161.558,-161.566 0,-15.094 -2.066,-29.703 -5.937,-43.563 l -2.512,-3.715 -16.274,-32.894 -19.257,-27.492 -22.434,-19.696 -23.66,-15.836 -37.508,-13.097 -38.176,-3.082 -48.191,8.797 -36.633,17.718 -27.176,23.219 -24.41,32.453 -16.398,44.11 -4.18,37.515 2.902,28.098"
         inkscape:connector-curvature="0"
         id="path2204"
         style="fill:#619bbc;fill-rule:nonzero;stroke:none" />
      <path
         d="M 774.328,693.895 774.543,0 1674.68,0 c 53.54,0 96.96,43.4375 96.96,96.9844 l 0,499.9176 c 0,53.559 -43.42,96.993 -96.96,96.993 l -900.352,0"
         inkscape:connector-curvature="0"
         id="path2206"
         style="fill:#619bbc;fill-rule:nonzero;stroke:none" />
      <path
         d="m 982.203,490.305 c -28.738,5.117 -47.894,-10.274 -47.894,-35.258 l 0,-101.945 -45.161,0 0,101.945 c 0,49.953 34.555,84.851 93.055,77.66 l 0,-42.402"
         inkscape:connector-curvature="0"
         id="path2208"
         style="fill:#ffffff;fill-rule:nonzero;stroke:none" />
      <path
         d="m 1123.8,459.809 c -5.49,20.539 -22.59,33.523 -44.14,33.523 -20.53,0 -36.96,-12.984 -43.45,-33.523 l 87.59,0 z m -88.27,-36.95 c 5.8,-21.539 22.92,-34.879 44.13,-34.879 15.04,0 29.77,6.481 37.29,20.512 l 48.23,0 c -10.25,-35.926 -41.38,-60.203 -85.18,-60.203 -49.61,0 -90.32,41.051 -90.32,92.031 0,50.961 40.71,92.7 90.32,92.7 52.01,0 95.11,-40.356 88.61,-110.161 l -133.08,0"
         inkscape:connector-curvature="0"
         id="path2210"
         style="fill:#ffffff;fill-rule:nonzero;stroke:none" />
      <path
         d="m 1278.73,490.613 c -24.97,0 -45.16,-21.898 -45.16,-50.648 0,-28.043 20.19,-49.602 45.16,-49.602 24.98,0 45.15,22.25 45.15,49.602 0,28.062 -20.17,50.648 -45.15,50.648 z m 90.31,-138.226 -43.1,0 0,18.82 c -13.69,-14.363 -32.5,-22.582 -54.06,-22.582 -45.83,0 -83.81,39.688 -83.81,91.695 0,52.344 37.98,92.032 83.81,92.032 21.56,0 40.37,-8.219 54.06,-22.582 l 0,18.82 43.1,0 0,-176.203"
         inkscape:connector-curvature="0"
         id="path2212"
         style="fill:#ffffff;fill-rule:nonzero;stroke:none" />
      <path
         d="m 1398.06,352.387 45.1641,0 0,254.535 -45.1641,0 0,-254.535 z"
         inkscape:connector-curvature="0"
         id="path2214"
         style="fill:#ffffff;fill-rule:nonzero;stroke:none" />
      <path
         d="m 968.223,96.1602 c -51.664,-5.4571 -79.032,25.6558 -79.032,73.8988 l 0,61.925 -21.211,0 0,40.043 21.211,0 0,44.809 45.141,0 0,-44.809 33.973,0 0,-40.043 -33.973,0 0,-62.257 c 0,-24.637 11.297,-33.879 33.891,-32.497 l 0,-41.0698"
         inkscape:connector-curvature="0"
         id="path2216"
         style="fill:#ffffff;fill-rule:nonzero;stroke:none" />
      <path
         d="m 996.711,95.8242 45.1641,0 0,176.203 -45.1641,0 0,-176.203 z"
         inkscape:connector-curvature="0"
         id="path2218"
         style="fill:#ffffff;fill-rule:nonzero;stroke:none" />
      <path
         d="m 1340.68,95.8242 -45.16,0 0,102.9888 c 0,10.246 -3.41,34.878 -32.84,34.878 -20.19,0 -34.22,-15.058 -34.22,-34.878 l 0,-102.9888 -45.5,0 0,102.9888 c 0,10.246 -3.07,34.878 -32.83,34.878 -19.84,0 -33.87,-15.058 -33.87,-34.878 l 0,-102.9888 -45.5,0 0,176.2028 43.45,0 0,-17.105 c 10.94,13.34 26.33,21.531 45.49,21.531 21.91,0 40.37,-9.215 52.69,-24.965 12.66,15.391 31.13,24.965 53.71,24.965 47.2,0 74.58,-31.465 74.58,-77.64 l 0,-102.9888"
         inkscape:connector-curvature="0"
         id="path2220"
         style="fill:#ffffff;fill-rule:nonzero;stroke:none" />
      <path
         d="m 1494.39,203.246 c -5.47,20.543 -22.58,33.52 -44.13,33.52 -20.52,0 -36.95,-12.977 -43.44,-33.52 l 87.57,0 z m -88.26,-36.945 c 5.81,-21.543 22.92,-34.879 44.13,-34.879 15.05,0 29.77,6.476 37.3,20.508 l 48.23,0 c -10.26,-35.922 -41.4,-60.1995 -85.18,-60.1995 -49.6,0 -90.31,41.0465 -90.31,92.0235 0,50.961 40.71,92.699 90.31,92.699 52,0 95.1,-40.351 88.6,-110.152 l -133.08,0"
         inkscape:connector-curvature="0"
         id="path2222"
         style="fill:#ffffff;fill-rule:nonzero;stroke:none" />
      <path
         d="m 1045.06,312.477 c 0,-14.348 -11.65,-25.997 -26.01,-25.997 -14.35,0 -25.999,11.649 -25.999,25.997 0,14.363 11.649,26.011 25.999,26.011 14.36,0 26.01,-11.648 26.01,-26.011"
         inkscape:connector-curvature="0"
         id="path2224"
         style="fill:#ffffff;fill-rule:nonzero;stroke:none" />
      <path
         d="m 111.461,119.801 4.547,0 c 9.484,0 8.918,4.207 8.918,14.769 l 0,47.551 c 0,10.426 0.566,14.77 -8.918,14.77 l -4.547,0 0,-77.09 z m 9.285,100.762 c 22.41,0 32.055,-10.024 32.055,-33.52 l 0,-57.398 c 0,-23.672 -9.645,-33.5434 -32.055,-33.5434 l -36.8124,0 0,124.4614 36.8124,0 z m 41.363,-16.04 25.676,0 0,-108.4214 -25.676,0 0,108.4214 z m 71.391,-34.046 0,10.015 c 0,3.473 -2.199,5.836 -5.844,5.836 -4.183,0 -5.656,-2.207 -5.656,-6.75 0,-7.125 9.121,-11.117 19.516,-18.973 13.297,-9.828 18.953,-19.671 18.953,-34.792 0,-21.852 -10.207,-31.3364 -31.52,-31.3364 -24.234,0 -32.804,8.7534 -32.804,32.9644 l 0,13.321 25.675,0 0,-15.129 c 0,-7.633 0.18,-11.313 5.836,-11.313 4.742,0 6.395,3.141 6.395,10.043 0,9.297 -2.75,12.567 -9.645,17.84 -16.972,13.32 -27.902,19.512 -27.902,35.93 0,18.758 10.219,28.043 31.152,28.043 21.875,0 31.516,-8.375 31.516,-28.621 l 0,-7.078 -25.672,0 z m 73.34,-9.872 0,14.438 c 0,7.633 -0.207,11.285 -5.86,11.285 -5.632,0 -5.835,-3.848 -5.835,-11.285 l 0,-49.41 c 0,-7.633 0.203,-11.313 5.835,-11.313 5.653,0 5.86,3.832 5.86,11.313 l 0,14.414 26.031,0 0,-10.785 c 0,-23.672 -6.926,-34.7854 -31.891,-34.7854 -24.968,0 -31.894,11.1134 -31.894,34.7854 l 0,42.125 c 0,23.492 6.926,34.789 31.894,34.789 24.965,0 31.891,-11.117 31.891,-34.789 l 0,-10.782 -26.031,0 z m 71.695,14.438 c 0,7.633 -0.18,11.285 -5.836,11.285 -5.633,0 -5.812,-3.848 -5.812,-11.285 l 0,-49.41 c 0,-7.633 0.179,-11.313 5.812,-11.313 5.656,0 5.836,3.832 5.836,11.313 l 0,49.41 z m -5.836,31.133 c 24.969,0 31.883,-11.117 31.883,-34.789 l 0,-42.125 c 0,-23.672 -6.914,-34.7854 -31.883,-34.7854 -24.961,0 -31.894,11.1134 -31.894,34.7854 l 0,42.125 c 0,23.492 6.933,34.789 31.894,34.789 z m 72.5,-89.289 c 3.817,11.668 5.813,27.523 5.813,47.371 l 0,40.265 25.699,0 0,-43.918 c 0,-28.046 -6.195,-49.914 -17.113,-64.5034 l -28.785,0 c -10.938,14.5894 -17.129,36.4574 -17.129,64.5034 l 0,43.918 25.675,0 0,-40.265 c 0,-19.848 2.204,-35.703 5.84,-47.371 z m 64.512,49.191 12.394,0 0,8.207 c 0,8.391 -0.179,12.043 -6.218,12.043 -5.992,0 -6.176,-3.652 -6.176,-12.043 l 0,-8.207 z m 0,-19.84 0,-20.605 c 0,-7.633 0.184,-11.313 6.176,-11.313 6.039,0 6.218,4.012 6.218,11.313 l 0,14.414 25.692,0 0,-10.785 c 0,-23.672 -6.918,-34.7854 -31.91,-34.7854 -24.949,0 -31.875,11.1134 -31.875,34.7854 l 0,42.125 c 0,23.492 6.926,34.789 31.875,34.789 24.992,0 31.91,-11.117 31.91,-34.789 l 0,-25.149 -38.086,0 z m 70.879,58.285 0,-5.835 c 3.648,4.207 8.937,7.105 16.598,7.105 18.042,0 22.226,-11.465 22.226,-32.961 l 0,-20.039 -25.691,0 0,22.25 c 0,7.633 -0.188,11.285 -5.84,11.285 -5.637,0 -5.817,-3.848 -5.817,-11.285 l 0,-78.9414 -25.707,0 0,108.4214 24.231,0 z m 73.187,0 0,-40.085 c 0,-20.379 2.207,-38.086 5.836,-52.278 3.672,13.653 5.84,31.488 5.84,52.278 l 0,40.085 25.699,0 0,-38.972 c 0,-28.262 -3.828,-52.676 -22.781,-82.0041 l -40.266,0 0,15.1211 17.122,0 c -12.024,21.133 -17.122,42.094 -17.122,66.883 l 0,38.972 25.672,0"
         inkscape:connector-curvature="0"
         id="path2226"
         style="fill:#619bbc;fill-rule:evenodd;stroke:none" />
      <path
         d="m 683.152,452.934 c 0.68,5.125 0.125,10.433 -0.879,15.699 -0.125,0.34 -0.218,0.711 -0.328,1.058 -2.515,8.157 -10.859,28.032 -10.859,23.899 -0.164,-6.078 4.051,-12.938 0.187,-18.219 -1.918,-2.269 -4.527,4.891 -7.921,2.961 -1.625,-0.984 0.949,-6.059 -0.336,-8.641 -0.754,-1.531 -2.008,-2.48 -2.789,-4.429 -2.789,-4.809 -9.086,-5.086 -11.563,-10.074 -0.902,-1.637 2.727,-0.375 4.207,-0.571 8.121,-1.043 18.133,8.16 20.488,7.613 0,0 5.809,0.493 9.793,-9.296 z m -7.004,-15.637 c 0.188,3.641 -3.96,3.371 -6.468,3.504 -2.973,-0.067 -6.59,-0.539 -9.098,-2.297 -1.117,-0.969 -2.594,-2.906 -2.48,-4.32 0.132,-0.786 7.785,3.261 11.695,1.687 2.535,-1.211 0.93,-4.683 1.277,-6.625 0.274,-0.887 0.965,0.207 1.387,0.551 2.605,1.707 1.48,4.906 1.152,7.098 -0.175,0.828 1.727,0.886 2.535,0.402 z m -3.964,-28.695 c -0.246,2.628 -4.157,7.234 -6.836,2.371 -1.821,-3.289 -1.532,-14.266 -6.5,-19.871 -2.434,-2.247 5.715,1.535 7.507,3.703 3.575,4.14 6.04,8.879 5.829,13.797 z m -13.844,1.824 c -0.051,2.062 -2.887,-0.707 -2.508,0.781 0.941,4.422 1.211,9.121 0.094,13.641 -2.258,10.011 -6.403,20.027 -17.465,24.539 -2.094,0.918 -2.063,-0.297 -1.586,-0.657 5.371,-4.867 13.492,-10.769 10.215,-19.191 -0.477,-0.918 -1.988,-1.551 -2.68,-0.719 -4.496,6.61 -10.461,12.075 -17.519,16.547 -4.407,2.121 -8.899,4.992 -13.254,4.434 1.586,-3.735 7.304,-3.59 9.328,-6.586 1.598,-2.547 6.558,-3.977 5.937,-6.66 -0.879,-3.371 -4.863,-1.207 -7.203,-2.274 -0.781,-0.343 -2.219,-0.586 -1.984,-1.789 0.355,-1.621 10.164,-2.125 13.387,-6.562 3.664,-4.762 5.765,-11.375 3.785,-16.926 -1.129,-4.035 -5.18,-5.445 -8.071,-7.668 -1.882,-1.473 4.622,-0.106 4.543,-3.285 -0.281,-3.602 -4.035,-4.973 -7.086,-6.227 -7.382,-2.816 -21.863,-3.328 -22.859,-2.226 -0.793,1.004 -1.016,0.679 -1.305,3.57 -0.164,0.887 -1.148,0.805 -1.82,0.52 -2.973,-0.973 -5.555,-5.079 -4.551,-7.157 6.403,-10.004 18.938,-8.523 29.012,-8.039 3.273,0.352 7.633,1.297 10.004,2.934 10.07,6.785 24.012,14.426 23.586,29 z m -31.363,-44.102 c -14.047,-5.527 -28.168,-3.715 -41.356,1.516 -1.223,0.508 -2.949,2.101 -3.855,0.066 -0.844,-1.785 7.808,-5.054 11.863,-6.855 10.644,-3.863 25.453,-4.914 33.894,3.902 0.211,0.406 0.18,1.238 -0.546,1.371 z m -7.325,-32.883 c -3.086,-2.105 -7.019,-3.32 -10.707,-4.16 -4.992,-0.461 -9.558,2.012 -14.261,2.727 0.375,-4.227 7.625,-2.82 7.769,-6.067 -0.019,-2.8 -2.89,-3.832 -4.871,-4.972 8.715,-0.223 17.723,4.922 22.07,12.472 z m -32.578,1.633 c -4.32,-0.035 -5.824,5.895 -9.344,6.352 -0.859,0.09 -2.164,-0.258 -2.417,-1.434 -0.473,-2.41 2.472,-6.394 6.457,-6.683 1.648,-0.145 4.816,-1.164 5.304,1.765 z m -13.246,36.981 c 4.012,-0.282 -8.98,7.625 -14.465,8.386 -1.722,0.118 -3.343,-0.48 -4.199,-1.718 -2.84,-4.125 -4.785,-7.586 -4.555,-11.598 0.149,-1.742 1.961,-4.504 4.243,-2.867 2.308,1.863 -0.344,4.746 1.043,6.93 4.914,5.738 11.984,1.246 17.933,0.867 z m -27.004,26.363 c 3.969,2.254 9.426,5.391 9.453,10.332 0.008,0.418 -0.363,0.215 -0.675,0 -2.438,-1.668 -6.157,-5.273 -7.379,-5.109 -1.934,0.168 -4.145,-2.051 -5.106,-3.743 -0.66,-1.281 2.446,-2.168 3.707,-1.48 z m -15.402,16.527 c 1.48,-1.129 2.738,-0.703 3.691,0.821 5.649,9.066 5.602,19.011 3.067,29.195 -0.871,3.519 -3.66,6.949 -7.696,7.375 -1.664,0.117 -3.785,-1.379 -4.156,-3.754 -0.476,-4.273 -0.945,-7.621 -3.457,-11.543 -1,-1.832 -1.535,-4.469 0.942,-5.781 2.703,-1.145 3.417,6.625 7.375,5.121 1.105,-0.496 1.097,-1.813 0.921,-3.07 -0.687,-5.786 2.559,-9.262 0.383,-14.434 -1.785,-4.004 -1.07,-3.93 -1.07,-3.93 z m -9.051,59.137 c 0.524,1.547 1.492,3.016 0.75,4.762 -1.121,2.672 -2.531,5.113 -5.746,6.293 -2.562,1.601 -5.742,-2.047 -2.461,-3.797 3.688,-1.078 4.008,-5.84 7.457,-7.258 z m -14.996,-28.098 -1.098,-1.906 c -0.207,-9.406 -2.793,-17.848 -8.285,-26.191 4.008,0.215 6.567,3.703 8.313,6.718 1.972,6.899 7.531,15.368 1.07,21.379 z m -8.203,-75.3 c -5.106,0 -4.942,-6.692 -9.281,-8.196 2.879,-0.593 5.738,1.391 8.019,2.758 1.594,1.344 2.227,3.645 1.262,5.438 z m -16.656,-0.719 c -13.731,-8.942 -29.387,-4.227 -43.84,-4.442 -5.113,-0.269 -9.985,-2.41 -12.5,-7.015 -0.379,-0.887 -0.785,-1.813 0.012,-2.281 1.136,0.566 1.496,1.964 2.57,2.8 5.676,3.575 13.183,3.125 19.043,-0.652 1.515,-1.258 1.941,-3.148 0.535,-5.137 -3.977,-5.211 -9.402,-13.078 -5.785,-20.265 1.637,-3.891 9.797,-8.703 10.476,-6.434 0.832,3.274 -2.781,4.324 -4.773,6.375 -2.699,3.16 -1.188,7.137 0.871,9.813 7.961,8.937 18.633,14.425 29.445,19.726 2.653,1.613 4.825,4.594 3.946,7.512 z m -45.559,-20.199 c -3.129,0.867 -4.996,-2.379 -6.492,-4.719 -1.031,-2.215 -0.61,-5.266 0.758,-7.535 0.711,-0.828 1.965,-2.367 3.125,-1.789 -3.313,4.718 0.129,10.226 2.609,14.043 z m -11.668,40.211 c -5.855,1.921 -11.949,2.082 -17.574,5.761 -1.129,0.391 -3.828,0.321 -2.613,-1.738 5.214,-5.801 13.507,-6.562 20.187,-4.023 z m -0.324,-15.196 c -3.442,3.989 -9.246,-0.687 -13.32,-1.699 -2.313,-0.543 -6.524,1.109 -6.899,-0.848 -0.859,-4.742 2.527,-9.101 6.086,-11.953 1.504,-1.062 2.598,2.653 3.484,4.418 1.594,3.215 4.938,4.129 8.067,5.129 1.91,0.766 4.367,2.555 2.582,4.953 z m -24.16,2.942 c 2.929,-0.473 6.316,0.511 9.082,1.586 -3.664,0.371 -7.617,2.808 -11.008,1.132 0,0 -3.477,-2.269 1.926,-2.718 z m -15.957,75.715 c -5.438,-9.879 -1.403,-20.5 2.679,-30.629 2.028,-4.407 6.871,-7.864 12.082,-9.262 14.664,-2.035 32.743,0.269 45.661,8.223 0.625,0.433 0.375,1.902 -0.993,1.507 -9.722,-2.422 -19.238,1.059 -28.492,3.848 -1.972,0.516 -5.539,-2.82 -8.512,-2.445 -2.507,0.59 -4.613,1.316 -5.136,3.883 -0.172,1.667 1.644,2.171 2.484,3.164 -3.492,1.003 -8.262,4.734 -8.262,4.734 -5.285,4.535 -7.496,11.176 -10.722,17.187 -0.375,0.821 -0.789,-0.21 -0.789,-0.21 z m 8.769,23.101 c -0.652,-2.164 -0.605,-4.551 -0.082,-6.848 0.524,-2.289 1.52,-4.519 2.801,-6.375 1.215,-2.714 4.859,-3.351 7.035,-4.07 1.004,0.613 2.473,-0.336 2.902,1.125 -3.078,2.684 -5.347,5.93 -7.433,9.32 -1.332,2.192 -2.613,4.457 -3.996,6.661 -0.953,1.636 -1.227,0.187 -1.227,0.187 z m 0.746,-18.918 c -1.218,-4.445 2.817,-7.656 5.453,-10.531 1.985,-2.356 5.563,-3.348 6.852,-6.242 0.41,-1.09 -1.652,-0.895 -0.969,-1.719 2,-2.117 5.235,-3.594 7.422,-2.684 4.012,1.844 8.875,1.438 12.817,0.383 1.554,-0.449 3.273,-0.824 3.925,1.203 0.446,1.778 -2.66,3.774 -5.062,4.004 -10.235,1.082 -20.797,7.188 -27.231,14.395 -2.48,2.925 -3.207,1.191 -3.207,1.191 z m 14.641,12.59 c 0,-0.188 0.019,-0.352 0.027,-0.52 0.164,-5.878 3.074,-11.851 8.27,-13.66 -0.149,2.742 4.015,3.438 2.879,6.114 -1.325,2.445 -2.59,4.625 -2.934,7.546 -0.273,2.325 -0.297,4.766 -0.367,6.954 0.211,2.289 -0.488,7.195 -2.438,6.226 -4.867,-2.406 -5.117,-8.16 -5.437,-12.66 z m 17.773,32.367 c -5.476,-4.34 -7.113,-11.844 -7.3,-18.199 -0.036,-2.383 1.211,-5.109 3.921,-5.473 1.536,0.067 1.563,2.192 0.997,3.317 -1.782,3.23 0.23,12.199 4.007,13.215 6.723,1.636 9.911,8.796 14.7,13.144 1.199,1.164 2.871,0.356 3.562,2.238 0.164,0.68 -0.094,1.262 -0.531,1.723 -0.403,0.41 -0.906,0.738 -1.403,0.969 -1.042,0.547 -2.843,-0.473 -4.148,-0.969 -4.512,-1.754 -7.82,-5.598 -10.387,-10.055 -0.332,-0.531 -1.379,-0.269 -2.031,0.227 -0.629,0.223 -1.387,-0.137 -1.387,-0.137 z m 27.621,-103.797 c -5.082,5.649 -12.39,1.535 -18.328,-0.797 -2.457,-0.867 -5.894,1.817 -8.691,1.157 -2.652,-0.707 12.68,-11.274 16.344,-7.453 3.043,2.949 13.179,4.351 10.675,7.093 z m 1.899,-13.402 c 0.766,-0.301 2.16,-0.184 2.391,0.887 0.734,1.734 -1.524,2.226 -2.301,3.199 -1.344,0.262 -2.473,-0.567 -3.219,-1.613 0,0 -0.734,-1.707 3.129,-2.473 z m 8.707,0.711 c 4.211,-0.652 7.91,-1.875 11.144,1.387 0.954,1.484 2.102,3.859 -0.171,5.3 -1.985,1.52 -10.914,-1.488 -16.391,-2.175 0,0 -6.723,0.089 5.418,-4.512 z m 0.187,17.469 c 12.118,1.996 20.129,11.168 25.489,22.289 2.191,4.519 3.718,9.254 3.906,13.539 0.137,4.539 2.172,10.039 -2.559,14.136 -2.429,1.665 -4.632,-5 -6.093,-7.75 -3.899,-9.562 -12.235,-13.339 -19.043,-19.058 -1.336,-1.094 0.734,-1.75 1.82,-1.969 2.477,-0.121 5.637,1.145 7.887,2.52 2.015,0.722 3.636,3.308 6.117,2.246 1.613,-1.864 0.09,-3.785 -0.078,-5.715 -2.797,-10.449 -13.574,-12.125 -19.348,-18.863 0,0 -1.773,-1.821 1.902,-1.375 z m -42.593,54.898 c -2.231,-3.66 -0.2,-8.043 2.39,-10.488 7.364,-6.543 16.907,-7.203 25.785,-7.121 4.891,0.261 9.5,1.347 13.903,4.336 1.277,0.921 -3.672,1.714 -1.887,2.281 l 8.899,2.656 c 1.261,0.297 1.835,1.199 3.261,1.707 4.012,1.57 6.821,5.039 7.086,9.442 -0.117,2.363 -0.976,5.265 -2.922,6.8 -0.863,0.602 -1.742,1.141 -2.656,1.621 -4.769,2.575 -10.191,3.528 -15.418,1.7 -0.644,-0.258 -1.594,-0.813 -2.156,-1.399 -1.438,-1.508 -2.285,-3.476 -1.242,-5.629 1.105,-2.738 3.086,0.899 4.66,-0.785 0.722,-0.84 1.531,-1.953 0.488,-3.105 -2.891,-2.852 -5.801,-3.285 -8.098,-2.844 -3.609,1.144 -7.359,2.793 -7.656,7.375 0.063,1.609 0.664,3.172 1.442,4.687 0.402,0.813 0.609,1.551 1.316,2.434 5.852,6.387 16.422,6.602 24.027,5.809 l -0.195,0.14 c -1.062,0.727 -0.961,2.301 -0.016,3.215 3.668,1.926 7.231,-0.008 10.731,-1.363 4.008,-2.078 7.113,-5.735 8.019,-10.235 0.188,-0.918 0.286,-1.882 0.196,-2.953 -0.168,-2.535 -1.293,-5.683 0.875,-7.492 1.515,-1.105 3.008,0.504 3.558,1.699 1.172,2.739 1.508,5.75 1.18,8.746 -0.531,5.02 -2.867,10 -6.031,13.524 -4.805,6.535 -14.258,11.305 -22.219,9.605 -2.738,-1.257 0.789,-2.597 -0.867,-4.316 -2.449,-2.035 -10.75,-0.508 -15.828,-1.598 -2.528,-0.437 -6.082,-4.633 -7.739,-2.261 -2.156,3.671 8.243,8.976 3.981,8.046 -10.106,-1.937 -13.574,-12.828 -15.887,-21.238 -0.969,-4.812 1.567,-10.578 4.863,-13.433 2.875,-3.395 9.61,-5.395 7.805,-10.661 -0.707,-1.894 -5.828,0.856 -8.73,1.145 -5.555,0.937 -11.692,3.918 -13.496,10.086 -0.559,1.441 -1.422,-0.133 -1.422,-0.133 z m 34.804,37.965 c 10.11,1.273 19.981,0.945 29.391,-2.758 1.559,-0.707 3.773,-3.305 3.285,-0.555 -0.64,3.313 -3.652,8.254 -6.273,6.571 -4.157,-2.571 -6.168,1.156 -9.082,2.578 -4.309,1.691 -10.102,-1.68 -14.93,-3.305 -1.141,-0.43 -4.5,-2.871 -2.391,-2.531 z m 22.703,9.141 c 4.375,0.847 10.118,-3.817 13.028,1.878 0.707,1.766 -2.656,1.934 -4.121,1.7 -2.996,-0.297 -7.309,-0.336 -9.242,-2.965 -0.622,-0.789 0.335,-0.613 0.335,-0.613 z m 22.836,-52.883 c 3.364,1.16 5.411,5.23 5.864,8.574 0.23,2.875 -0.239,5.871 -1.473,8.437 -0.941,2.012 -2.352,3.758 -4.32,4.946 -0.563,0.199 -1.551,0.097 -1.696,-0.629 0.911,-1.363 1.524,-2.836 1.993,-4.317 1.738,-5.531 0.816,-11.652 -0.368,-17.011 z m 26.43,38.113 c -5.558,6.176 -12.738,13.941 -21.914,14.535 -2.152,-2.769 -5.512,-1.75 -8.5,-1.937 -1.355,-0.016 -2.352,-1.883 -1.195,-2.532 7.363,-2.605 12.922,-11.05 21.008,-8.886 1.496,0.382 -1.582,2.113 -0.922,3.465 1.347,2.484 7.226,-4.149 11.359,-5.618 0,0 1.176,-0.261 0.164,0.973 z m 0.457,-8.723 c -1.621,0.825 -6.09,0.868 -3.812,-2.625 2.382,-2.539 3.109,-6.172 3.738,-9.754 0.148,-0.918 -0.332,-2.246 0.48,-2.711 l 1.399,-0.828 c 2.265,-0.492 2.504,13.735 -1.805,15.918 z m 20.496,32.047 c 1.742,-0.734 3.571,-1.219 5.43,-1.574 3.609,-0.656 7.383,-0.648 11.121,0 3.758,0.664 7.473,1.937 10.91,3.809 2.11,1.078 2.926,3.003 2.66,4.632 -9.425,-5.144 -22.199,-5.707 -32.379,-6.152 l 2.258,-0.715 z m 30.449,-29.894 c 0.942,0.472 3.356,-0.528 2.567,0.898 -3.742,3.766 -9.328,4.719 -12.375,9.008 -1.613,1.601 -2.961,-0.945 -3.207,-2.301 -0.387,-2.316 -3.379,-2.199 -5.192,-3.433 -2.175,-1.692 0.137,-3.028 1.211,-3.934 5.551,-3.18 11.536,-2.996 16.996,-0.238 z m 4.848,-52.016 c -0.941,0.656 -1.957,0.301 -2.894,0.063 -1.645,-0.954 -2.114,-2.047 -3.102,-3.727 -1.184,-1.871 -0.238,-3.906 1.359,-5.113 0.559,-0.168 1.957,-0.289 2.079,0.84 -1.833,3.339 1.226,5.601 2.558,7.937 z m 4.715,-36.656 c -1.898,-1.715 -3.461,-3.949 -3.461,-6.465 0.055,-1.063 1.762,-2.504 3.297,-1.5 0.453,0.566 0.32,1.031 0.41,1.66 0.176,2.832 2.527,4.57 2.965,6.977 -0.024,2.129 -3.211,-0.672 -3.211,-0.672 z m 4.75,30.746 c 0.965,3.5 5.109,3.5 7.605,5.258 1.317,1.14 4.137,-0.489 3.789,1.457 l -9.644,-0.887 c -3.758,-1.426 -6.664,-4.582 -8.336,-8.437 -0.746,-1.329 0.125,-3.004 1.316,-3.723 3.5,-1.879 8.36,-1.574 11.008,0.48 -2.144,1.375 -5.863,2.582 -5.738,5.852 z m 20.219,60.074 c -1.657,2.965 -6.242,5.488 -3.856,9.594 1.739,2.988 -13.183,12.101 -15.511,9.363 -3.848,-4.351 -14.778,-0.656 -13.989,-1.703 0,0 0.75,-1.352 1.504,-2.484 2.113,-3.305 -5.883,0.441 -7.894,-2.563 -1.079,-1.512 7.254,-2.297 10.824,-4.223 2.594,-1.101 4.969,-5.097 6.746,-3.886 1.68,1.308 -0.984,3.594 -0.301,4.586 2.207,2.883 6.215,2.668 8.801,1.761 6.191,-2.503 -0.469,-6.429 -0.449,-9.789 0.015,-2.261 12.34,-2.867 13.398,-1.828 0,0 1.156,0.586 0.727,1.172 z m -27.371,41.547 c 0.796,-0.734 1.695,-0.691 2.679,-0.473 5.039,1.535 9.633,5.301 10.68,10.582 0.234,1.414 -0.238,3.977 -2.691,4.383 -1.153,0.098 -2.086,0.262 -1.954,-0.082 2.098,-5.515 -4.418,-11.394 -8.714,-14.41 z m 22.886,8.766 c -0.804,-7.454 -7.972,-9.868 -13.168,-13.301 8.2,0.488 17.039,2.379 22.125,8.14 2.364,2.918 1.922,6.793 0.844,10.512 -1.875,5.699 -10.406,7.52 -14.691,10.758 0.734,-5.395 5.793,-9.922 4.89,-16.109 z m 16.043,-72.801 c 8.051,-5.988 18.75,-1.188 26.254,3.449 -8.414,2.879 -17.183,-5.863 -25.984,-2.953 -1.203,0.379 -0.27,-0.496 -0.27,-0.496 z m 14.727,33.437 c -0.469,-1.187 6.91,-5.125 7.469,-4.023 1.129,3.098 -2.559,3.219 -4.149,4.66 -0.738,0.832 -2.699,0.898 -3.32,-0.637 z m 11.617,-9.644 c 0.215,-2.656 1.414,-5.887 4.336,-7.067 -0.219,1.2 -0.469,1.707 0.215,3.114 1.222,2.363 -1.586,3.316 -2.879,4.578 -0.637,0.609 -1.695,0.308 -1.672,-0.625 z m 4.719,32.836 0.41,-2.805 c 0.082,-1.484 1.898,-3.309 2.656,-5.164 1.156,-2.84 2.184,-5.77 3.946,-7.758 0.984,2.824 0.46,5.395 -0.731,7.758 -1.527,3.02 -4.141,5.672 -6.281,7.969 z m -85.969,28.972 c -1.164,4.946 -7.25,7.559 -11.285,7.84 -2.949,0.223 -6.902,-0.558 -9.113,-2.508 -1.512,-1.289 -3.582,-3.699 -2.836,-5.878 3.238,-3.868 6.797,1.57 10.715,0.671 2.574,-1.105 6.152,-0.234 7.914,-3.234 0.644,-1.125 0.464,-3.289 0.226,-4.047 0,0 -0.519,-0.926 1.11,0.309 1.625,1.258 3.855,4.351 3.269,6.847 z m -26.59,19.887 c -3.945,3.371 -5.625,4.18 -10.351,2.758 -1.118,-0.457 -0.453,-2.633 -0.957,-4 -0.391,-1.375 -1.36,-2.027 -2.758,-1.996 -1.774,0.191 -1.961,2.945 -3.953,2.668 -3.321,-0.371 -6.325,-2.602 -8.922,-4.578 -0.539,-0.414 -0.496,-1.11 -0.488,-1.629 0,-0.871 0.214,-1.766 0.55,-2.711 0.633,-2.125 4.317,-3.426 7.117,-2.442 l 10.563,3.934 2.414,0.945 c 2.938,1.336 9.91,4.743 6.785,7.051 z m -6.922,-27.094 c -3.281,2.696 -11.078,2.871 -11.847,1.328 -0.313,-1.039 0.687,-1.808 1.336,-2.363 0.414,-0.461 10.855,-4.195 12.109,-2.453 0.82,1.695 -1.328,2.117 -1.598,3.488 z m -150.402,-36.586 -0.09,-1.113 c -0.394,-7.004 -4.773,-15.355 -0.023,-21.488 0.64,-0.891 1.297,-1.039 2.152,-0.293 0.742,0.625 -1.25,17.168 3.41,24.547 0.977,1.547 2.344,-2.567 3.703,-3.742 1.86,-2.168 4.899,-1.645 7.618,-0.485 2.851,1.637 6.351,3.43 6.886,6.922 0.426,2.285 -12.219,-3.957 -14.359,0.656 -0.176,0.34 -0.231,0.676 -0.305,1.016 -0.445,1.773 0.164,3.531 0.899,5.176 0.683,1.871 3.902,3.39 5.769,1.98 2.637,-2.047 6.027,-2.781 9.281,-2.09 6.539,2.09 12.332,6.477 13.965,13.297 -4.789,-3.086 -11.07,-7.601 -17.351,-5.48 -1.688,0.824 -2.985,3.066 -2.301,4.965 4.828,11.394 16.465,19.777 29.558,19.296 1.469,-0.023 3.407,-1.125 4.063,-2.632 0.992,-2.055 -4.426,-5.227 -2.293,-5.594 2.559,-0.254 5.863,1.91 8.949,1.359 2.297,-0.488 2.321,-2.574 2.239,-4.156 -0.465,-2.703 -2.825,-3.937 -4.942,-5.023 -3.734,-1.606 -5.332,4.019 -7.633,-0.235 -0.664,-1.246 -0.578,-3.344 0.446,-4.855 1.254,-1.77 4.046,-1.274 6.078,-0.824 5.371,1.273 8.058,6.671 13.187,7.5 5.281,0.812 -1.554,-9.02 5.266,-9.004 2.582,0 3.422,2.336 5.164,3.261 15.078,8.176 30.684,0.274 43.414,-8.285 4.832,-3.222 16.645,-6.656 17.434,-4.476 1.324,3.726 -2.735,3.75 -4.403,6.078 -0.785,1.668 -3.308,2.039 -3.371,4.23 -0.019,1.781 2.492,1.719 3.656,1.168 14.914,-7.629 31.477,-7.953 47.457,-2.476 0.75,0.164 1.711,1.187 1.008,1.73 -1.008,0.879 -2.508,3.223 -0.219,3.668 8.473,2.856 17.879,8.043 18.09,17.863 -0.547,5.629 -4.824,9.289 -10.136,10.739 -3.075,0.976 -9.52,-0.703 -7.993,-1.375 3.668,-1.434 8.207,-3.911 9.172,-7.875 0.461,-3.957 -0.949,-8.293 -4.093,-11.106 -9.36,-7.246 -22.567,-10.785 -34.153,-7.5 -1.414,0.488 -0.953,4.231 -3.5,4.067 -8.328,0.429 -16.703,0.789 -24.664,3.992 -0.805,0.492 -1.312,1.707 -1.035,2.636 0.742,2.04 3.754,1.137 4.855,2.801 1.641,3.391 -8.843,4.692 -13.265,7.641 -4.43,2.016 -14.051,0 -13.442,4.105 0.766,4.317 7.426,2.493 10.864,3.934 0.758,0.344 0.375,0.844 0.144,1.687 -0.894,3.278 -3.324,7.805 1.117,9.672 9.422,4.477 18.766,8.243 28.829,9.645 6.265,0.836 8.406,-3.649 8.406,-3.649 5.512,3.649 11.84,2.68 17.008,-0.257 0.414,-0.223 0.828,-0.45 1.218,-0.707 1.516,-0.93 4.27,-2.731 4.985,-4.809 0.496,-1.355 1.261,1.379 1.035,2.273 -0.637,2.743 -3.035,3.075 -4.652,5.356 -1.465,2.058 -4.243,2.289 -2.567,5.055 0.645,1.148 2.754,1.394 4.207,1.343 6.078,-0.242 14.586,-2.097 19.356,-4.484 1.461,-0.731 3.277,-1.457 3.179,-2.836 -0.019,-1.5 -4.316,0.813 -5.621,0.742 -1.859,-0.105 -2.136,3.946 -1.816,1.598 0.187,-1.344 4.168,-1.68 6.406,-2.5 5.043,-1.879 10.289,-3.981 13.566,-7.945 -0.335,-1.93 0.399,-3.243 1.594,-4.278 2.199,-1.84 5.887,-2.918 8.356,-4.449 9.148,-5.133 15.472,-12.594 19.66,-21.543 0.301,-0.719 1.875,-0.316 2.258,0.332 1.922,3.785 -0.582,7.969 -2.512,10.969 -2.348,4.59 -6.613,7.66 -10.879,10.793 -2.332,1.742 -4.652,3.515 -6.648,5.582 -0.598,0.695 0.211,1.695 1.004,1.715 4.089,0.226 7.226,-2.364 11.144,-4.516 1.781,-0.82 3.195,-2.039 4.555,-3.289 1.492,-1.406 2.898,-2.82 4.539,-3.863 -1.063,1.351 -2.223,2.621 -3.43,3.875 -6.683,6.937 -15.476,12.531 -24.773,16.617 -1.18,0.547 -2.602,1.715 -2.043,2.808 0.828,1.438 2.652,1.063 3.965,0.985 0.894,-0.098 4.57,0.476 5.796,-0.137 7.797,-4.308 11.411,-6.976 18.266,-12.43 1.141,-0.918 2.828,-1.82 3.926,-2.773 -0.301,0.27 1.457,-1.191 1.172,-0.938 1.109,-0.886 2.754,-3.41 2.929,-3.667 9.746,-8.934 18.368,-19.063 25.68,-30.125 4.426,-6.473 8.402,-13.278 11.832,-20.352 6.531,-13.383 11.152,-27.805 13.664,-42.875 1.738,-10.441 2.473,-21.223 2.039,-32.215 C 689.582,379.422 651.258,324 600.816,299.367 c -27.113,-13.824 -56.57,-18.269 -85.207,-15.383 -82.574,6.571 -147.574,75.602 -147.574,159.864 0,8.511 0.676,16.851 1.945,24.988 l 1.102,5.801 c 0.277,1.426 0.168,-0.758 0.598,-1.504 0.968,-1.164 4.113,-6.617 5.828,-6.91 0.871,-0.071 1.664,0.918 1.437,1.765 -0.047,0.285 -0.105,0.578 -0.156,0.848 -0.762,4.461 -1.914,8.812 -2.492,13.066 -0.586,4.356 3.133,8.7 4.965,12.77 1.797,3.344 0.465,7.375 4.117,10.433 0,0 2.793,2.504 2.664,0.586 z m 120.449,75.676 c -0.691,-0.859 -0.566,-2.308 0.356,-1.648 5.394,2.578 10.597,-1.766 15.109,0.754 1.363,0.785 0.09,2.672 -1.68,3.113 -4.347,0.754 -10.629,1.488 -13.785,-2.219 z M 488.02,568.355 c 0.277,-6.203 -8.973,-5.765 -10.918,-8.957 -0.672,-1 -7.418,-6.66 -7.223,-3.062 0.535,6.5 7.41,7.996 11.519,11.352 2.778,2.109 6.54,2.023 6.622,0.667"
         inkscape:connector-curvature="0"
         id="path2228"
         style="fill:#145093;fill-rule:nonzero;stroke:none" />
      <path
         d="m 1541.95,309.957 0,-36.887 -8.52,0 0,36.887 -12.02,0 0,7.945 32.56,0 0,-7.945 -12.02,0"
         inkscape:connector-curvature="0"
         id="path2230"
         style="fill:#ffffff;fill-rule:nonzero;stroke:none" />
      <path
         d="m 1603.25,273.07 -8.4,0 0,32.883 -9.11,-32.883 -9.1,0 -9.11,32.883 0,-32.883 -8.4,0 0,44.832 12.66,0 9.36,-33.589 9.37,33.589 12.73,0 0,-44.832"
         inkscape:connector-curvature="0"
         id="path2232"
         style="fill:#ffffff;fill-rule:nonzero;stroke:none" />
    </g>
  </g>
</svg>
