<?xml version="1.0" encoding="UTF-8" standalone="no"?>
<svg
    xmlns:cc="http://creativecommons.org/ns#"
    xmlns:rdf="http://www.w3.org/1999/02/22-rdf-syntax-ns#"
    xmlns:svg="http://www.w3.org/2000/svg"
    xmlns="http://www.w3.org/2000/svg"
    width="311" height="311">
  <g transform="translate(-5281.05972,8647.027009)">
    <g transform="matrix(20.654845,0,0,-20.654845,0,0)">
      <path style="fill:#0fdf2c;fill-rule:evenodd;stroke:none;fill-opacity:1"
            d="M 264.015,403.916 C 263.571,403.473 262.853,403.473 262.409,403.916 L 256.014,410.311 C 255.571,410.754 255.571,411.473 256.014,411.916 L 262.409,418.311 C 262.853,418.755 263.571,418.755 264.015,418.311 L 270.409,411.917 C 270.853,411.473 270.853,410.754 270.409,410.311 L 264.015,403.916 z "/>
      <path style="fill:#ffffff;fill-rule:nonzero;stroke:none"
            d="M 265.796,414.836 L 260.548,414.836 C 260.05,414.836 259.647,414.432 259.647,413.935 C 259.647,413.437 260.05,413.034 260.548,413.034 L 264.895,413.034 L 264.895,411.961 L 260.511,411.961 C 260.013,411.961 259.61,411.557 259.61,411.06 C 259.61,410.562 260.013,410.159 260.511,410.159 L 264.895,410.159 L 264.895,409.112 L 260.548,409.112 C 260.05,409.112 259.647,408.709 259.647,408.211 C 259.647,407.713 260.05,407.31 260.548,407.31 L 265.796,407.31 C 266.294,407.31 266.697,407.713 266.697,408.211 L 266.697,413.935 C 266.697,414.432 266.294,414.836 265.796,414.836"/>
    </g>
  </g>
</svg>
